(kicad_symbol_lib (version 20211014) (generator kicad_symbol_editor)
  (symbol "+1.1V" (power) (pin_numbers hide) (pin_names (offset 0) hide) (in_bom no) (on_board no)
    (property "Reference" "#PWR" (id 0) (at 0 -3.81 0)
      (effects (font (size 1.27 1.27)) hide)
    )
    (property "Value" "+1.1V" (id 1) (at 0 3.81 0)
      (effects (font (size 1.27 1.27)))
    )
    (property "Footprint" "" (id 2) (at 0 0 0)
      (effects (font (size 1.27 1.27)) hide)
    )
    (property "Datasheet" "" (id 3) (at 0 0 0)
      (effects (font (size 1.27 1.27)) hide)
    )
    (symbol "+1.1V_0_1"
      (polyline
        (pts
          (xy -0.762 1.27)
          (xy 0 2.54)
        )
        (stroke (width 0) (type default) (color 0 0 0 0))
        (fill (type none))
      )
      (polyline
        (pts
          (xy 0 0)
          (xy 0 2.54)
        )
        (stroke (width 0) (type default) (color 0 0 0 0))
        (fill (type none))
      )
      (polyline
        (pts
          (xy 0 2.54)
          (xy 0.762 1.27)
        )
        (stroke (width 0) (type default) (color 0 0 0 0))
        (fill (type none))
      )
    )
    (symbol "+1.1V_1_1"
      (pin power_in line (at 0 0 90) (length 0) hide
        (name "+1.1V" (effects (font (size 1.27 1.27))))
        (number "1" (effects (font (size 1.27 1.27))))
      )
    )
  )
  (symbol "AP7333" (in_bom yes) (on_board yes)
    (property "Reference" "U" (id 0) (at 8.89 5.08 0)
      (effects (font (size 1.27 1.27)))
    )
    (property "Value" "AP7333" (id 1) (at 0 0 0)
      (effects (font (size 1.27 1.27) bold))
    )
    (property "Footprint" "sn0:AP7333-33SRG-7" (id 2) (at 0 0 0)
      (effects (font (size 1.27 1.27)) hide)
    )
    (property "Datasheet" "~" (id 3) (at 0 0 0)
      (effects (font (size 1.27 1.27)) hide)
    )
    (symbol "AP7333_0_1"
      (rectangle (start -7.62 3.81) (end 7.62 -3.81)
        (stroke (width 0) (type default) (color 0 0 0 0))
        (fill (type background))
      )
    )
    (symbol "AP7333_1_1"
      (pin bidirectional line (at -5.08 -6.35 90) (length 2.54)
        (name "GND" (effects (font (size 1.27 1.27))))
        (number "1" (effects (font (size 1.27 1.27))))
      )
      (pin bidirectional line (at 5.08 -6.35 90) (length 2.54)
        (name "OUT" (effects (font (size 1.27 1.27))))
        (number "2" (effects (font (size 1.27 1.27))))
      )
      (pin bidirectional line (at 0 6.35 270) (length 2.54)
        (name "IN" (effects (font (size 1.27 1.27))))
        (number "3" (effects (font (size 1.27 1.27))))
      )
    )
  )
  (symbol "ESD7L" (in_bom yes) (on_board yes)
    (property "Reference" "D" (id 0) (at 3.81 5.08 0)
      (effects (font (size 1.27 1.27)))
    )
    (property "Value" "ESD7L" (id 1) (at 0 0 90)
      (effects (font (size 1.27 1.27) bold))
    )
    (property "Footprint" "sn0:ESD7L5.0DT5G" (id 2) (at 0 0 0)
      (effects (font (size 1.27 1.27)) hide)
    )
    (property "Datasheet" "~" (id 3) (at 0 0 90)
      (effects (font (size 1.27 1.27)) hide)
    )
    (symbol "ESD7L_0_1"
      (rectangle (start -2.54 -3.81) (end 2.54 3.81)
        (stroke (width 0) (type default) (color 0 0 0 0))
        (fill (type background))
      )
    )
    (symbol "ESD7L_1_1"
      (pin bidirectional line (at -5.08 2.54 0) (length 2.54)
        (name "" (effects (font (size 1.27 1.27))))
        (number "1" (effects (font (size 1.27 1.27))))
      )
      (pin bidirectional line (at -5.08 -2.54 0) (length 2.54)
        (name "" (effects (font (size 1.27 1.27))))
        (number "2" (effects (font (size 1.27 1.27))))
      )
      (pin bidirectional line (at 5.08 0 180) (length 2.54)
        (name "" (effects (font (size 1.27 1.27))))
        (number "3" (effects (font (size 1.27 1.27))))
      )
    )
  )
  (symbol "NCP1117" (in_bom yes) (on_board yes)
    (property "Reference" "U" (id 0) (at 6.35 8.89 0)
      (effects (font (size 1.27 1.27)))
    )
    (property "Value" "NCP1117" (id 1) (at 0 0 90)
      (effects (font (size 1.27 1.27) bold))
    )
    (property "Footprint" "sn0:NCP1117ST33T3G" (id 2) (at 0 0 0)
      (effects (font (size 1.27 1.27)) hide)
    )
    (property "Datasheet" "~" (id 3) (at 0 0 90)
      (effects (font (size 1.27 1.27)) hide)
    )
    (symbol "NCP1117_0_1"
      (rectangle (start -5.08 7.62) (end 5.08 -7.62)
        (stroke (width 0) (type default) (color 0 0 0 0))
        (fill (type background))
      )
    )
    (symbol "NCP1117_1_1"
      (pin bidirectional line (at -7.62 5.08 0) (length 2.54)
        (name "GND" (effects (font (size 1.27 1.27))))
        (number "1" (effects (font (size 1.27 1.27))))
      )
      (pin bidirectional line (at -7.62 0 0) (length 2.54)
        (name "OUT" (effects (font (size 1.27 1.27))))
        (number "2" (effects (font (size 1.27 1.27))))
      )
      (pin bidirectional line (at -7.62 -5.08 0) (length 2.54)
        (name "IN" (effects (font (size 1.27 1.27))))
        (number "3" (effects (font (size 1.27 1.27))))
      )
      (pin bidirectional line (at 7.62 0 180) (length 2.54)
        (name "TAB" (effects (font (size 1.27 1.27))))
        (number "4" (effects (font (size 1.27 1.27))))
      )
    )
  )
  (symbol "PAM8908JER" (in_bom yes) (on_board yes)
    (property "Reference" "U" (id 0) (at 15.24 15.24 0)
      (effects (font (size 1.27 1.27)))
    )
    (property "Value" "PAM8908JER" (id 1) (at 0 5.08 0)
      (effects (font (size 1.27 1.27) bold))
    )
    (property "Footprint" "sn0:PAM8908JER" (id 2) (at 0 0 0)
      (effects (font (size 1.27 1.27)) hide)
    )
    (property "Datasheet" "~" (id 3) (at 0 0 0)
      (effects (font (size 1.27 1.27)) hide)
    )
    (symbol "PAM8908JER_0_1"
      (rectangle (start -13.97 13.97) (end 13.97 -13.97)
        (stroke (width 0) (type default) (color 0 0 0 0))
        (fill (type background))
      )
      (rectangle (start -2.54 2.54) (end 2.54 -2.54)
        (stroke (width 0) (type default) (color 0 0 0 0))
        (fill (type outline))
      )
      (rectangle (start 1.27 0) (end 1.27 0)
        (stroke (width 0) (type default) (color 0 0 0 0))
        (fill (type none))
      )
    )
    (symbol "PAM8908JER_1_1"
      (pin bidirectional line (at -16.51 7.62 0) (length 2.54)
        (name "INLN" (effects (font (size 1.27 1.27))))
        (number "1" (effects (font (size 1.27 1.27))))
      )
      (pin bidirectional line (at 16.51 -2.54 180) (length 2.54)
        (name "PGND" (effects (font (size 1.27 1.27))))
        (number "10" (effects (font (size 1.27 1.27))))
      )
      (pin bidirectional line (at 16.51 2.54 180) (length 2.54)
        (name "CAPP" (effects (font (size 1.27 1.27))))
        (number "11" (effects (font (size 1.27 1.27))))
      )
      (pin bidirectional line (at 16.51 7.62 180) (length 2.54)
        (name "HPVDD" (effects (font (size 1.27 1.27))))
        (number "12" (effects (font (size 1.27 1.27))))
      )
      (pin bidirectional line (at 7.62 16.51 270) (length 2.54)
        (name "EN" (effects (font (size 1.27 1.27))))
        (number "13" (effects (font (size 1.27 1.27))))
      )
      (pin bidirectional line (at 2.54 16.51 270) (length 2.54)
        (name "PVDD" (effects (font (size 1.27 1.27))))
        (number "14" (effects (font (size 1.27 1.27))))
      )
      (pin bidirectional line (at -2.54 16.51 270) (length 2.54)
        (name "SGND" (effects (font (size 1.27 1.27))))
        (number "15" (effects (font (size 1.27 1.27))))
      )
      (pin bidirectional line (at -7.62 16.51 270) (length 2.54)
        (name "OUTL" (effects (font (size 1.27 1.27))))
        (number "16" (effects (font (size 1.27 1.27))))
      )
      (pin bidirectional line (at 0 -5.08 90) (length 2.54)
        (name "PAD" (effects (font (size 1.27 1.27))))
        (number "17" (effects (font (size 1.27 1.27))))
      )
      (pin bidirectional line (at -16.51 2.54 0) (length 2.54)
        (name "INLP" (effects (font (size 1.27 1.27))))
        (number "2" (effects (font (size 1.27 1.27))))
      )
      (pin bidirectional line (at -16.51 -2.54 0) (length 2.54)
        (name "INR_P" (effects (font (size 1.27 1.27))))
        (number "3" (effects (font (size 1.27 1.27))))
      )
      (pin bidirectional line (at -16.51 -7.62 0) (length 2.54)
        (name "INRN" (effects (font (size 1.27 1.27))))
        (number "4" (effects (font (size 1.27 1.27))))
      )
      (pin bidirectional line (at -7.62 -16.51 90) (length 2.54)
        (name "OUTR" (effects (font (size 1.27 1.27))))
        (number "5" (effects (font (size 1.27 1.27))))
      )
      (pin bidirectional line (at -2.54 -16.51 90) (length 2.54)
        (name "G0" (effects (font (size 1.27 1.27))))
        (number "6" (effects (font (size 1.27 1.27))))
      )
      (pin bidirectional line (at 2.54 -16.51 90) (length 2.54)
        (name "G1" (effects (font (size 1.27 1.27))))
        (number "7" (effects (font (size 1.27 1.27))))
      )
      (pin bidirectional line (at 7.62 -16.51 90) (length 2.54)
        (name "HPVSS" (effects (font (size 1.27 1.27))))
        (number "8" (effects (font (size 1.27 1.27))))
      )
      (pin bidirectional line (at 16.51 -7.62 180) (length 2.54)
        (name "CAPN" (effects (font (size 1.27 1.27))))
        (number "9" (effects (font (size 1.27 1.27))))
      )
    )
  )
  (symbol "PCM5100A" (in_bom yes) (on_board yes)
    (property "Reference" "U" (id 0) (at 10.16 16.51 0)
      (effects (font (size 1.27 1.27)))
    )
    (property "Value" "PCM5100A" (id 1) (at 0 0 90)
      (effects (font (size 1.27 1.27) bold))
    )
    (property "Footprint" "sn0:PCM5100APWR" (id 2) (at 0 0 0)
      (effects (font (size 1.27 1.27)) hide)
    )
    (property "Datasheet" "~" (id 3) (at 0 0 0)
      (effects (font (size 1.27 1.27)) hide)
    )
    (symbol "PCM5100A_0_1"
      (rectangle (start -8.89 15.24) (end 8.89 -15.24)
        (stroke (width 0) (type default) (color 0 0 0 0))
        (fill (type background))
      )
    )
    (symbol "PCM5100A_1_1"
      (pin bidirectional line (at -11.43 11.43 0) (length 2.54)
        (name "CPVDD" (effects (font (size 1.27 1.27))))
        (number "1" (effects (font (size 1.27 1.27))))
      )
      (pin bidirectional line (at -11.43 -11.43 0) (length 2.54)
        (name "DEMP" (effects (font (size 1.27 1.27))))
        (number "10" (effects (font (size 1.27 1.27))))
      )
      (pin bidirectional line (at 11.43 -11.43 180) (length 2.54)
        (name "FLT" (effects (font (size 1.27 1.27))))
        (number "11" (effects (font (size 1.27 1.27))))
      )
      (pin bidirectional line (at 11.43 -8.89 180) (length 2.54)
        (name "SCK" (effects (font (size 1.27 1.27))))
        (number "12" (effects (font (size 1.27 1.27))))
      )
      (pin bidirectional line (at 11.43 -6.35 180) (length 2.54)
        (name "BCK" (effects (font (size 1.27 1.27))))
        (number "13" (effects (font (size 1.27 1.27))))
      )
      (pin bidirectional line (at 11.43 -3.81 180) (length 2.54)
        (name "DIN" (effects (font (size 1.27 1.27))))
        (number "14" (effects (font (size 1.27 1.27))))
      )
      (pin bidirectional line (at 11.43 -1.27 180) (length 2.54)
        (name "LRCK" (effects (font (size 1.27 1.27))))
        (number "15" (effects (font (size 1.27 1.27))))
      )
      (pin bidirectional line (at 11.43 1.27 180) (length 2.54)
        (name "FMT" (effects (font (size 1.27 1.27))))
        (number "16" (effects (font (size 1.27 1.27))))
      )
      (pin bidirectional line (at 11.43 3.81 180) (length 2.54)
        (name "XSMT" (effects (font (size 1.27 1.27))))
        (number "17" (effects (font (size 1.27 1.27))))
      )
      (pin bidirectional line (at 11.43 6.35 180) (length 2.54)
        (name "LDOO" (effects (font (size 1.27 1.27))))
        (number "18" (effects (font (size 1.27 1.27))))
      )
      (pin bidirectional line (at 11.43 8.89 180) (length 2.54)
        (name "DGND" (effects (font (size 1.27 1.27))))
        (number "19" (effects (font (size 1.27 1.27))))
      )
      (pin bidirectional line (at -11.43 8.89 0) (length 2.54)
        (name "CAPP" (effects (font (size 1.27 1.27))))
        (number "2" (effects (font (size 1.27 1.27))))
      )
      (pin bidirectional line (at 11.43 11.43 180) (length 2.54)
        (name "DVDD" (effects (font (size 1.27 1.27))))
        (number "20" (effects (font (size 1.27 1.27))))
      )
      (pin bidirectional line (at -11.43 6.35 0) (length 2.54)
        (name "CPGND" (effects (font (size 1.27 1.27))))
        (number "3" (effects (font (size 1.27 1.27))))
      )
      (pin bidirectional line (at -11.43 3.81 0) (length 2.54)
        (name "CAPM" (effects (font (size 1.27 1.27))))
        (number "4" (effects (font (size 1.27 1.27))))
      )
      (pin bidirectional line (at -11.43 1.27 0) (length 2.54)
        (name "VNEG" (effects (font (size 1.27 1.27))))
        (number "5" (effects (font (size 1.27 1.27))))
      )
      (pin bidirectional line (at -11.43 -1.27 0) (length 2.54)
        (name "OUTL" (effects (font (size 1.27 1.27))))
        (number "6" (effects (font (size 1.27 1.27))))
      )
      (pin bidirectional line (at -11.43 -3.81 0) (length 2.54)
        (name "OUTR" (effects (font (size 1.27 1.27))))
        (number "7" (effects (font (size 1.27 1.27))))
      )
      (pin bidirectional line (at -11.43 -6.35 0) (length 2.54)
        (name "AVDD" (effects (font (size 1.27 1.27))))
        (number "8" (effects (font (size 1.27 1.27))))
      )
      (pin bidirectional line (at -11.43 -8.89 0) (length 2.54)
        (name "AGND" (effects (font (size 1.27 1.27))))
        (number "9" (effects (font (size 1.27 1.27))))
      )
    )
  )
  (symbol "PEC11R" (in_bom yes) (on_board yes)
    (property "Reference" "ENC" (id 0) (at 6.35 6.35 0)
      (effects (font (size 1.27 1.27)))
    )
    (property "Value" "PEC11R" (id 1) (at 0 -1.27 0)
      (effects (font (size 1.27 1.27) bold) (justify top))
    )
    (property "Footprint" "sn0:PEC11R-4015F-S0024" (id 2) (at 0 0 0)
      (effects (font (size 1.27 1.27)) hide)
    )
    (property "Datasheet" "~" (id 3) (at 0 0 0)
      (effects (font (size 1.27 1.27)) hide)
    )
    (symbol "PEC11R_0_1"
      (rectangle (start -5.08 5.08) (end 5.08 -5.08)
        (stroke (width 0) (type default) (color 0 0 0 0))
        (fill (type background))
      )
    )
    (symbol "PEC11R_1_1"
      (pin bidirectional line (at -2.54 -7.62 90) (length 2.54)
        (name "A" (effects (font (size 1.27 1.27))))
        (number "1" (effects (font (size 1.27 1.27))))
      )
      (pin bidirectional line (at 0 -7.62 90) (length 2.54)
        (name "C" (effects (font (size 1.27 1.27))))
        (number "2" (effects (font (size 1.27 1.27))))
      )
      (pin bidirectional line (at 2.54 -7.62 90) (length 2.54)
        (name "B" (effects (font (size 1.27 1.27))))
        (number "3" (effects (font (size 1.27 1.27))))
      )
      (pin bidirectional line (at -1.27 7.62 270) (length 2.54)
        (name "SW" (effects (font (size 1.27 1.27))))
        (number "4" (effects (font (size 1.27 1.27))))
      )
      (pin bidirectional line (at 1.27 7.62 270) (length 2.54)
        (name "SW" (effects (font (size 1.27 1.27))))
        (number "5" (effects (font (size 1.27 1.27))))
      )
      (pin bidirectional line (at -6.35 0 0) (length 1.27)
        (name "SH" (effects (font (size 1.27 1.27))))
        (number "6" (effects (font (size 1.27 1.27))))
      )
      (pin bidirectional line (at 6.35 0 180) (length 1.27)
        (name "SH" (effects (font (size 1.27 1.27))))
        (number "7" (effects (font (size 1.27 1.27))))
      )
    )
  )
  (symbol "PJ-320D" (in_bom yes) (on_board yes)
    (property "Reference" "J" (id 0) (at 8.89 5.08 0)
      (effects (font (size 1.27 1.27)))
    )
    (property "Value" "PJ-320D" (id 1) (at 0 0 0)
      (effects (font (size 1.27 1.27) bold))
    )
    (property "Footprint" "sn0:PJ-320D" (id 2) (at 0 0 0)
      (effects (font (size 1.27 1.27)) hide)
    )
    (property "Datasheet" "~" (id 3) (at 0 0 90)
      (effects (font (size 1.27 1.27)) hide)
    )
    (symbol "PJ-320D_0_1"
      (rectangle (start -7.62 -3.81) (end 7.62 3.81)
        (stroke (width 0) (type default) (color 0 0 0 0))
        (fill (type background))
      )
    )
    (symbol "PJ-320D_1_1"
      (pin bidirectional line (at 5.08 -6.35 90) (length 2.54)
        (name "" (effects (font (size 1.27 1.27))))
        (number "1" (effects (font (size 1.27 1.27))))
      )
      (pin bidirectional line (at 5.08 6.35 270) (length 2.54)
        (name "" (effects (font (size 1.27 1.27))))
        (number "2" (effects (font (size 1.27 1.27))))
      )
      (pin bidirectional line (at 0 6.35 270) (length 2.54)
        (name "" (effects (font (size 1.27 1.27))))
        (number "3" (effects (font (size 1.27 1.27))))
      )
      (pin bidirectional line (at -3.81 6.35 270) (length 2.54)
        (name "" (effects (font (size 1.27 1.27))))
        (number "4" (effects (font (size 1.27 1.27))))
      )
    )
  )
  (symbol "RP2040" (in_bom yes) (on_board yes)
    (property "Reference" "U" (id 0) (at 26.67 26.67 0)
      (effects (font (size 1.27 1.27)))
    )
    (property "Value" "RP2040" (id 1) (at 0 5.08 0)
      (effects (font (size 1.27 1.27) bold))
    )
    (property "Footprint" "sn0:RP2040" (id 2) (at 0 0 0)
      (effects (font (size 1.27 1.27)) hide)
    )
    (property "Datasheet" "~" (id 3) (at 0 0 0)
      (effects (font (size 1.27 1.27)) hide)
    )
    (symbol "RP2040_0_1"
      (rectangle (start -25.4 25.4) (end 25.4 -24.13)
        (stroke (width 0) (type default) (color 0 0 0 0))
        (fill (type background))
      )
      (rectangle (start -2.54 2.54) (end 2.54 -2.54)
        (stroke (width 0) (type default) (color 0 0 0 0))
        (fill (type outline))
      )
    )
    (symbol "RP2040_1_1"
      (pin bidirectional line (at -27.94 16.51 0) (length 2.54)
        (name "IOVDD" (effects (font (size 1.27 1.27))))
        (number "1" (effects (font (size 1.27 1.27))))
      )
      (pin bidirectional line (at -27.94 -6.35 0) (length 2.54)
        (name "IOVDD" (effects (font (size 1.27 1.27))))
        (number "10" (effects (font (size 1.27 1.27))))
      )
      (pin bidirectional line (at -27.94 -8.89 0) (length 2.54)
        (name "GPIO8" (effects (font (size 1.27 1.27))))
        (number "11" (effects (font (size 1.27 1.27))))
      )
      (pin bidirectional line (at -27.94 -11.43 0) (length 2.54)
        (name "GPIO9" (effects (font (size 1.27 1.27))))
        (number "12" (effects (font (size 1.27 1.27))))
      )
      (pin bidirectional line (at -27.94 -13.97 0) (length 2.54)
        (name "GPIO10" (effects (font (size 1.27 1.27))))
        (number "13" (effects (font (size 1.27 1.27))))
      )
      (pin bidirectional line (at -27.94 -16.51 0) (length 2.54)
        (name "GPIO11" (effects (font (size 1.27 1.27))))
        (number "14" (effects (font (size 1.27 1.27))))
      )
      (pin bidirectional line (at -16.51 -26.67 90) (length 2.54)
        (name "GPIO12" (effects (font (size 1.27 1.27))))
        (number "15" (effects (font (size 1.27 1.27))))
      )
      (pin bidirectional line (at -13.97 -26.67 90) (length 2.54)
        (name "GPIO13" (effects (font (size 1.27 1.27))))
        (number "16" (effects (font (size 1.27 1.27))))
      )
      (pin bidirectional line (at -11.43 -26.67 90) (length 2.54)
        (name "GPIO14" (effects (font (size 1.27 1.27))))
        (number "17" (effects (font (size 1.27 1.27))))
      )
      (pin bidirectional line (at -8.89 -26.67 90) (length 2.54)
        (name "GPIO15" (effects (font (size 1.27 1.27))))
        (number "18" (effects (font (size 1.27 1.27))))
      )
      (pin bidirectional line (at -6.35 -26.67 90) (length 2.54)
        (name "TESTEN" (effects (font (size 1.27 1.27))))
        (number "19" (effects (font (size 1.27 1.27))))
      )
      (pin bidirectional line (at -27.94 13.97 0) (length 2.54)
        (name "GPIO0" (effects (font (size 1.27 1.27))))
        (number "2" (effects (font (size 1.27 1.27))))
      )
      (pin bidirectional line (at -3.81 -26.67 90) (length 2.54)
        (name "XIN" (effects (font (size 1.27 1.27))))
        (number "20" (effects (font (size 1.27 1.27))))
      )
      (pin bidirectional line (at -1.27 -26.67 90) (length 2.54)
        (name "XOUT" (effects (font (size 1.27 1.27))))
        (number "21" (effects (font (size 1.27 1.27))))
      )
      (pin bidirectional line (at 1.27 -26.67 90) (length 2.54)
        (name "IOVDD" (effects (font (size 1.27 1.27))))
        (number "22" (effects (font (size 1.27 1.27))))
      )
      (pin bidirectional line (at 3.81 -26.67 90) (length 2.54)
        (name "DVDD" (effects (font (size 1.27 1.27))))
        (number "23" (effects (font (size 1.27 1.27))))
      )
      (pin bidirectional line (at 6.35 -26.67 90) (length 2.54)
        (name "SWCLK" (effects (font (size 1.27 1.27))))
        (number "24" (effects (font (size 1.27 1.27))))
      )
      (pin bidirectional line (at 8.89 -26.67 90) (length 2.54)
        (name "SWDIO" (effects (font (size 1.27 1.27))))
        (number "25" (effects (font (size 1.27 1.27))))
      )
      (pin bidirectional line (at 11.43 -26.67 90) (length 2.54)
        (name "RUN" (effects (font (size 1.27 1.27))))
        (number "26" (effects (font (size 1.27 1.27))))
      )
      (pin bidirectional line (at 13.97 -26.67 90) (length 2.54)
        (name "GPIO16" (effects (font (size 1.27 1.27))))
        (number "27" (effects (font (size 1.27 1.27))))
      )
      (pin bidirectional line (at 16.51 -26.67 90) (length 2.54)
        (name "GPIO17" (effects (font (size 1.27 1.27))))
        (number "28" (effects (font (size 1.27 1.27))))
      )
      (pin bidirectional line (at 27.94 -16.51 180) (length 2.54)
        (name "GPIO18" (effects (font (size 1.27 1.27))))
        (number "29" (effects (font (size 1.27 1.27))))
      )
      (pin bidirectional line (at -27.94 11.43 0) (length 2.54)
        (name "GPIO1" (effects (font (size 1.27 1.27))))
        (number "3" (effects (font (size 1.27 1.27))))
      )
      (pin bidirectional line (at 27.94 -13.97 180) (length 2.54)
        (name "GPIO19" (effects (font (size 1.27 1.27))))
        (number "30" (effects (font (size 1.27 1.27))))
      )
      (pin bidirectional line (at 27.94 -11.43 180) (length 2.54)
        (name "GPIO20" (effects (font (size 1.27 1.27))))
        (number "31" (effects (font (size 1.27 1.27))))
      )
      (pin bidirectional line (at 27.94 -8.89 180) (length 2.54)
        (name "GPIO21" (effects (font (size 1.27 1.27))))
        (number "32" (effects (font (size 1.27 1.27))))
      )
      (pin bidirectional line (at 27.94 -6.35 180) (length 2.54)
        (name "IOVDD" (effects (font (size 1.27 1.27))))
        (number "33" (effects (font (size 1.27 1.27))))
      )
      (pin bidirectional line (at 27.94 -3.81 180) (length 2.54)
        (name "GPIO22" (effects (font (size 1.27 1.27))))
        (number "34" (effects (font (size 1.27 1.27))))
      )
      (pin bidirectional line (at 27.94 -1.27 180) (length 2.54)
        (name "GPIO23" (effects (font (size 1.27 1.27))))
        (number "35" (effects (font (size 1.27 1.27))))
      )
      (pin bidirectional line (at 27.94 1.27 180) (length 2.54)
        (name "GPIO24" (effects (font (size 1.27 1.27))))
        (number "36" (effects (font (size 1.27 1.27))))
      )
      (pin bidirectional line (at 27.94 3.81 180) (length 2.54)
        (name "GPIO25" (effects (font (size 1.27 1.27))))
        (number "37" (effects (font (size 1.27 1.27))))
      )
      (pin bidirectional line (at 27.94 6.35 180) (length 2.54)
        (name "GPIO26" (effects (font (size 1.27 1.27))))
        (number "38" (effects (font (size 1.27 1.27))))
      )
      (pin bidirectional line (at 27.94 8.89 180) (length 2.54)
        (name "GPIO27" (effects (font (size 1.27 1.27))))
        (number "39" (effects (font (size 1.27 1.27))))
      )
      (pin bidirectional line (at -27.94 8.89 0) (length 2.54)
        (name "GPIO2" (effects (font (size 1.27 1.27))))
        (number "4" (effects (font (size 1.27 1.27))))
      )
      (pin bidirectional line (at 27.94 11.43 180) (length 2.54)
        (name "GPIO28" (effects (font (size 1.27 1.27))))
        (number "40" (effects (font (size 1.27 1.27))))
      )
      (pin bidirectional line (at 27.94 13.97 180) (length 2.54)
        (name "GPIO29" (effects (font (size 1.27 1.27))))
        (number "41" (effects (font (size 1.27 1.27))))
      )
      (pin bidirectional line (at 27.94 16.51 180) (length 2.54)
        (name "IOVDD" (effects (font (size 1.27 1.27))))
        (number "42" (effects (font (size 1.27 1.27))))
      )
      (pin bidirectional line (at 16.51 27.94 270) (length 2.54)
        (name "ADC_AVDD" (effects (font (size 1.27 1.27))))
        (number "43" (effects (font (size 1.27 1.27))))
      )
      (pin bidirectional line (at 13.97 27.94 270) (length 2.54)
        (name "VREG_VIN" (effects (font (size 1.27 1.27))))
        (number "44" (effects (font (size 1.27 1.27))))
      )
      (pin bidirectional line (at 11.43 27.94 270) (length 2.54)
        (name "VREG_VOUT" (effects (font (size 1.27 1.27))))
        (number "45" (effects (font (size 1.27 1.27))))
      )
      (pin bidirectional line (at 8.89 27.94 270) (length 2.54)
        (name "USB_DM" (effects (font (size 1.27 1.27))))
        (number "46" (effects (font (size 1.27 1.27))))
      )
      (pin bidirectional line (at 6.35 27.94 270) (length 2.54)
        (name "USB_DP" (effects (font (size 1.27 1.27))))
        (number "47" (effects (font (size 1.27 1.27))))
      )
      (pin bidirectional line (at 3.81 27.94 270) (length 2.54)
        (name "USB_VDD" (effects (font (size 1.27 1.27))))
        (number "48" (effects (font (size 1.27 1.27))))
      )
      (pin bidirectional line (at 1.27 27.94 270) (length 2.54)
        (name "IOVDD" (effects (font (size 1.27 1.27))))
        (number "49" (effects (font (size 1.27 1.27))))
      )
      (pin bidirectional line (at -27.94 6.35 0) (length 2.54)
        (name "GPIO3" (effects (font (size 1.27 1.27))))
        (number "5" (effects (font (size 1.27 1.27))))
      )
      (pin bidirectional line (at -1.27 27.94 270) (length 2.54)
        (name "DVDD" (effects (font (size 1.27 1.27))))
        (number "50" (effects (font (size 1.27 1.27))))
      )
      (pin bidirectional line (at -3.81 27.94 270) (length 2.54)
        (name "QSPI_SD3" (effects (font (size 1.27 1.27))))
        (number "51" (effects (font (size 1.27 1.27))))
      )
      (pin bidirectional line (at -6.35 27.94 270) (length 2.54)
        (name "QSPI_SCLK" (effects (font (size 1.27 1.27))))
        (number "52" (effects (font (size 1.27 1.27))))
      )
      (pin bidirectional line (at -8.89 27.94 270) (length 2.54)
        (name "QSPI_SD0" (effects (font (size 1.27 1.27))))
        (number "53" (effects (font (size 1.27 1.27))))
      )
      (pin bidirectional line (at -11.43 27.94 270) (length 2.54)
        (name "QSPI_SD2" (effects (font (size 1.27 1.27))))
        (number "54" (effects (font (size 1.27 1.27))))
      )
      (pin bidirectional line (at -13.97 27.94 270) (length 2.54)
        (name "QSPI_SD1" (effects (font (size 1.27 1.27))))
        (number "55" (effects (font (size 1.27 1.27))))
      )
      (pin bidirectional line (at -16.51 27.94 270) (length 2.54)
        (name "QSPI_SS_N" (effects (font (size 1.27 1.27))))
        (number "56" (effects (font (size 1.27 1.27))))
      )
      (pin bidirectional line (at 0 -5.08 90) (length 2.54)
        (name "PAD" (effects (font (size 1.27 1.27))))
        (number "57" (effects (font (size 1.27 1.27))))
      )
      (pin bidirectional line (at -27.94 3.81 0) (length 2.54)
        (name "GPIO4" (effects (font (size 1.27 1.27))))
        (number "6" (effects (font (size 1.27 1.27))))
      )
      (pin bidirectional line (at -27.94 1.27 0) (length 2.54)
        (name "GPIO5" (effects (font (size 1.27 1.27))))
        (number "7" (effects (font (size 1.27 1.27))))
      )
      (pin bidirectional line (at -27.94 -1.27 0) (length 2.54)
        (name "GPIO6" (effects (font (size 1.27 1.27))))
        (number "8" (effects (font (size 1.27 1.27))))
      )
      (pin bidirectional line (at -27.94 -3.81 0) (length 2.54)
        (name "GPIO7" (effects (font (size 1.27 1.27))))
        (number "9" (effects (font (size 1.27 1.27))))
      )
    )
  )
  (symbol "TYPE-C-31-M-12" (in_bom yes) (on_board yes)
    (property "Reference" "P" (id 0) (at 20.32 7.62 0)
      (effects (font (size 1.27 1.27)))
    )
    (property "Value" "TYPE-C-31-M-12" (id 1) (at 0 0 0)
      (effects (font (size 1.27 1.27) bold))
    )
    (property "Footprint" "sn0:TYPE-C-31-M-12" (id 2) (at 0 0 0)
      (effects (font (size 1.27 1.27)) hide)
    )
    (property "Datasheet" "~" (id 3) (at 0 0 0)
      (effects (font (size 1.27 1.27)) hide)
    )
    (symbol "TYPE-C-31-M-12_0_1"
      (rectangle (start -19.05 6.35) (end 19.05 -6.35)
        (stroke (width 0) (type default) (color 0 0 0 0))
        (fill (type background))
      )
      (rectangle (start 29.21 -3.81) (end 29.21 -3.81)
        (stroke (width 0) (type default) (color 0 0 0 0))
        (fill (type none))
      )
    )
    (symbol "TYPE-C-31-M-12_1_1"
      (pin bidirectional line (at -13.97 13.97 270) (length 7.62)
        (name "GND" (effects (font (size 1.27 1.27))))
        (number "A1/B12" (effects (font (size 1.27 1.27))))
      )
      (pin bidirectional line (at -11.43 13.97 270) (length 7.62)
        (name "VBUS" (effects (font (size 1.27 1.27))))
        (number "A4/B9" (effects (font (size 1.27 1.27))))
      )
      (pin bidirectional line (at -6.35 8.89 270) (length 2.54)
        (name "CC1" (effects (font (size 1.27 1.27))))
        (number "A5" (effects (font (size 1.27 1.27))))
      )
      (pin bidirectional line (at -1.27 8.89 270) (length 2.54)
        (name "DP1" (effects (font (size 1.27 1.27))))
        (number "A6" (effects (font (size 1.27 1.27))))
      )
      (pin bidirectional line (at 1.27 8.89 270) (length 2.54)
        (name "DN1" (effects (font (size 1.27 1.27))))
        (number "A7" (effects (font (size 1.27 1.27))))
      )
      (pin bidirectional line (at 6.35 8.89 270) (length 2.54)
        (name "SBU1" (effects (font (size 1.27 1.27))))
        (number "A8" (effects (font (size 1.27 1.27))))
      )
      (pin bidirectional line (at 13.97 13.97 270) (length 7.62)
        (name "GND" (effects (font (size 1.27 1.27))))
        (number "B1/A12" (effects (font (size 1.27 1.27))))
      )
      (pin bidirectional line (at 11.43 13.97 270) (length 7.62)
        (name "VBUS" (effects (font (size 1.27 1.27))))
        (number "B4/A9" (effects (font (size 1.27 1.27))))
      )
      (pin bidirectional line (at 8.89 8.89 270) (length 2.54)
        (name "CC2" (effects (font (size 1.27 1.27))))
        (number "B5" (effects (font (size 1.27 1.27))))
      )
      (pin bidirectional line (at 3.81 8.89 270) (length 2.54)
        (name "DP2" (effects (font (size 1.27 1.27))))
        (number "B6" (effects (font (size 1.27 1.27))))
      )
      (pin bidirectional line (at -3.81 8.89 270) (length 2.54)
        (name "DN2" (effects (font (size 1.27 1.27))))
        (number "B7" (effects (font (size 1.27 1.27))))
      )
      (pin bidirectional line (at -8.89 8.89 270) (length 2.54)
        (name "SBU2" (effects (font (size 1.27 1.27))))
        (number "B8" (effects (font (size 1.27 1.27))))
      )
      (pin bidirectional line (at -21.59 3.81 0) (length 2.54)
        (name "SH" (effects (font (size 1.27 1.27))))
        (number "S0" (effects (font (size 1.27 1.27))))
      )
      (pin bidirectional line (at 21.59 3.81 180) (length 2.54)
        (name "SH" (effects (font (size 1.27 1.27))))
        (number "S1" (effects (font (size 1.27 1.27))))
      )
      (pin bidirectional line (at -21.59 -1.27 0) (length 2.54)
        (name "SH" (effects (font (size 1.27 1.27))))
        (number "S2" (effects (font (size 1.27 1.27))))
      )
      (pin bidirectional line (at 21.59 -1.27 180) (length 2.54)
        (name "SH" (effects (font (size 1.27 1.27))))
        (number "S3" (effects (font (size 1.27 1.27))))
      )
    )
  )
  (symbol "W25Q128JVS" (in_bom yes) (on_board yes)
    (property "Reference" "U" (id 0) (at 10.16 12.7 0)
      (effects (font (size 1.27 1.27)))
    )
    (property "Value" "W25Q128JVS" (id 1) (at 0 0 90)
      (effects (font (size 1.27 1.27) bold))
    )
    (property "Footprint" "sn0:W25Q128JVSIQ" (id 2) (at 0 0 0)
      (effects (font (size 1.27 1.27)) hide)
    )
    (property "Datasheet" "~" (id 3) (at 0 0 0)
      (effects (font (size 1.27 1.27)) hide)
    )
    (symbol "W25Q128JVS_0_1"
      (rectangle (start -8.89 11.43) (end 8.89 -11.43)
        (stroke (width 0) (type default) (color 0 0 0 0))
        (fill (type background))
      )
    )
    (symbol "W25Q128JVS_1_1"
      (pin bidirectional line (at -11.43 7.62 0) (length 2.54)
        (name "CS" (effects (font (size 1.27 1.27))))
        (number "1" (effects (font (size 1.27 1.27))))
      )
      (pin bidirectional line (at -11.43 2.54 0) (length 2.54)
        (name "IO1" (effects (font (size 1.27 1.27))))
        (number "2" (effects (font (size 1.27 1.27))))
      )
      (pin bidirectional line (at -11.43 -2.54 0) (length 2.54)
        (name "IO2" (effects (font (size 1.27 1.27))))
        (number "3" (effects (font (size 1.27 1.27))))
      )
      (pin bidirectional line (at -11.43 -7.62 0) (length 2.54)
        (name "GND" (effects (font (size 1.27 1.27))))
        (number "4" (effects (font (size 1.27 1.27))))
      )
      (pin bidirectional line (at 11.43 -7.62 180) (length 2.54)
        (name "IO0" (effects (font (size 1.27 1.27))))
        (number "5" (effects (font (size 1.27 1.27))))
      )
      (pin bidirectional line (at 11.43 -2.54 180) (length 2.54)
        (name "CLK" (effects (font (size 1.27 1.27))))
        (number "6" (effects (font (size 1.27 1.27))))
      )
      (pin bidirectional line (at 11.43 2.54 180) (length 2.54)
        (name "IO3" (effects (font (size 1.27 1.27))))
        (number "7" (effects (font (size 1.27 1.27))))
      )
      (pin bidirectional line (at 11.43 7.62 180) (length 2.54)
        (name "VCC" (effects (font (size 1.27 1.27))))
        (number "8" (effects (font (size 1.27 1.27))))
      )
    )
  )
  (symbol "WS2812B" (in_bom yes) (on_board yes)
    (property "Reference" "D" (id 0) (at 6.35 6.35 0)
      (effects (font (size 1.27 1.27)))
    )
    (property "Value" "WS2812B" (id 1) (at 0 0 0)
      (effects (font (size 1.27 1.27) bold))
    )
    (property "Footprint" "sn0:WS2812B" (id 2) (at 0 0 0)
      (effects (font (size 1.27 1.27)) hide)
    )
    (property "Datasheet" "~" (id 3) (at 0 0 0)
      (effects (font (size 1.27 1.27)) hide)
    )
    (symbol "WS2812B_0_1"
      (rectangle (start -5.08 5.08) (end 5.08 -5.08)
        (stroke (width 0) (type default) (color 0 0 0 0))
        (fill (type background))
      )
    )
    (symbol "WS2812B_1_1"
      (pin bidirectional line (at -7.62 2.54 0) (length 2.54)
        (name "VDD" (effects (font (size 1.27 1.27))))
        (number "1" (effects (font (size 1.27 1.27))))
      )
      (pin bidirectional line (at -7.62 -2.54 0) (length 2.54)
        (name "DO" (effects (font (size 1.27 1.27))))
        (number "2" (effects (font (size 1.27 1.27))))
      )
      (pin bidirectional line (at 7.62 -2.54 180) (length 2.54)
        (name "VSS" (effects (font (size 1.27 1.27))))
        (number "3" (effects (font (size 1.27 1.27))))
      )
      (pin bidirectional line (at 7.62 2.54 180) (length 2.54)
        (name "DIN" (effects (font (size 1.27 1.27))))
        (number "4" (effects (font (size 1.27 1.27))))
      )
    )
  )
  (symbol "X322512MSB4SI" (in_bom yes) (on_board yes)
    (property "Reference" "X" (id 0) (at 10.16 7.62 0)
      (effects (font (size 1.27 1.27)))
    )
    (property "Value" "X322512MSB4SI" (id 1) (at 0 0 0)
      (effects (font (size 1.27 1.27) bold))
    )
    (property "Footprint" "sn0:X322512MSB4SI" (id 2) (at 0 0 0)
      (effects (font (size 1.27 1.27)) hide)
    )
    (property "Datasheet" "~" (id 3) (at 0 0 0)
      (effects (font (size 1.27 1.27)) hide)
    )
    (symbol "X322512MSB4SI_0_1"
      (rectangle (start -8.89 6.35) (end 8.89 -6.35)
        (stroke (width 0) (type default) (color 0 0 0 0))
        (fill (type background))
      )
    )
    (symbol "X322512MSB4SI_1_1"
      (pin bidirectional line (at -6.35 -8.89 90) (length 2.54)
        (name "IN" (effects (font (size 1.27 1.27))))
        (number "1" (effects (font (size 1.27 1.27))))
      )
      (pin bidirectional line (at 6.35 -8.89 90) (length 2.54)
        (name "GND" (effects (font (size 1.27 1.27))))
        (number "2" (effects (font (size 1.27 1.27))))
      )
      (pin bidirectional line (at 6.35 8.89 270) (length 2.54)
        (name "OUT" (effects (font (size 1.27 1.27))))
        (number "3" (effects (font (size 1.27 1.27))))
      )
      (pin bidirectional line (at -6.35 8.89 270) (length 2.54)
        (name "GND" (effects (font (size 1.27 1.27))))
        (number "4" (effects (font (size 1.27 1.27))))
      )
    )
  )
)
