(footprint "PJ-320D" (version 20211014) (generator pcbnew)
  (layer "F.Cu")
  (tedit 63EBD11E)
  (attr smd)
  (fp_text reference "REF**" (at 0 5.95) (layer "F.SilkS")
    (effects (font (size 1 1) (thickness 0.15)))
    (tstamp 4df0f207-245e-4fe0-8c12-eb1bb3c69472)
  )
  (fp_text value "PJ-320D" (at 0 -10.45) (layer "F.Fab")
    (effects (font (size 1 1) (thickness 0.15)))
    (tstamp 1450d5bc-be6d-4ca4-acd0-d014bf063e40)
  )
  (fp_text user "${REFERENCE}" (at 0 0) (layer "F.Fab")
    (effects (font (size 0.26 0.26) (thickness 0.04)))
    (tstamp d5549481-74c8-4204-b7d8-59895d4276fa)
  )
  (fp_line (start 3.05 -9.35) (end 3.05 -5.07) (layer "F.SilkS") (width 0.127) (tstamp 15944b5b-2fc7-4727-a4bb-67f1ef2d93b4))
  (fp_line (start 3.05 4.75) (end -1.68 4.75) (layer "F.SilkS") (width 0.127) (tstamp 2506a3c9-8e45-49c9-b15c-07e1e3e3706a))
  (fp_line (start -3.05 3.03) (end -3.05 -9.35) (layer "F.SilkS") (width 0.127) (tstamp 2ea624c0-e6f0-4cfd-a73a-7ab53f2b89d6))
  (fp_line (start -3.05 -9.35) (end 3.05 -9.35) (layer "F.SilkS") (width 0.127) (tstamp 731f8c26-4768-4c4f-869c-26acea8b2ccf))
  (fp_line (start 3.05 3.77) (end 3.05 4.75) (layer "F.SilkS") (width 0.127) (tstamp f4d02ecc-1a46-4ef6-bc65-2ba8de941b3a))
  (fp_circle (center -5.4 3.95) (end -5.3 3.95) (layer "F.SilkS") (width 0.2) (fill solid) (tstamp a8701854-7faa-497f-9a4a-92ac59048d2d))
  (fp_rect (start 4.75 -9.6) (end -4.75 5) (layer "F.CrtYd") (width 0.05) (fill none) (tstamp 0b49675f-1d40-480f-aec0-fcfab279fcb0))
  (fp_line (start -3.05 -6.81) (end -3.05 -7.35) (layer "F.Fab") (width 0.127) (tstamp 6fa88fad-4694-4c81-a2a0-5fd86cbbf775))
  (fp_line (start 3.05 -6.81) (end 3.05 4.75) (layer "F.Fab") (width 0.127) (tstamp 7ac85169-9565-4b96-bf9d-7ed86a55c5a9))
  (fp_line (start 3.05 4.75) (end -3.05 4.75) (layer "F.Fab") (width 0.127) (tstamp 8f70c68c-b82c-4905-8e56-5eb0adb7196e))
  (fp_line (start 3.05 -7.35) (end 3.05 -6.81) (layer "F.Fab") (width 0.127) (tstamp ab0770ff-f824-47a6-afc2-dedf10a6f0a3))
  (fp_line (start -3.05 4.75) (end -3.05 -6.81) (layer "F.Fab") (width 0.127) (tstamp bb86b5d4-1856-49ef-badf-05d3ee28409a))
  (fp_rect (start 3.05 -9.35) (end -3.05 -7.35) (layer "F.Fab") (width 0.127) (fill none) (tstamp 5adb4655-2ba1-44b0-8d90-79fd07dba37a))
  (fp_circle (center -5.4 3.95) (end -5.3 3.95) (layer "F.Fab") (width 0.2) (fill solid) (tstamp 449c64aa-1167-40c4-9e6f-45c9e7adf56b))
  (pad "" np_thru_hole circle (at 0 1.25 270) (size 1 1) (drill 1) (layers *.Cu *.Mask) (tstamp 827723ed-4e38-4e7a-8225-93ba31ba3e1e))
  (pad "" np_thru_hole circle (at 0 -5.75 270) (size 1 1) (drill 1) (layers *.Cu *.Mask) (tstamp f523dba6-1456-4847-8298-6eae6b65bc50))
  (pad "1" smd roundrect (at -3.25 3.95 270) (size 1.2 2.5) (layers "F.Cu" "F.Paste" "F.Mask") (roundrect_rratio 0.04166666667) (tstamp 1a860d41-be61-4aa1-b6ff-9c179e178253))
  (pad "2" smd roundrect (at 3.25 2.85 270) (size 1.2 2.5) (layers "F.Cu" "F.Paste" "F.Mask") (roundrect_rratio 0.04166666667) (tstamp 9610fca3-ac38-470e-b3fe-6a1c7d887804))
  (pad "3" smd roundrect (at 3.25 -1.15 270) (size 1.2 2.5) (layers "F.Cu" "F.Paste" "F.Mask") (roundrect_rratio 0.04166666667) (tstamp 6d743e8d-a2f6-4b5a-9cad-353fc9e666d6))
  (pad "4" smd roundrect (at 3.25 -4.15 270) (size 1.2 2.5) (layers "F.Cu" "F.Paste" "F.Mask") (roundrect_rratio 0.04166666667) (tstamp 4e6397d0-4b1a-4ba5-b0c6-327a66d89f41))
)
